<?xml version="1.0" encoding="UTF-8" standalone="no"?>
<!-- Generator: Adobe Illustrator 17.0.1, SVG Export Plug-In . SVG Version: 6.00 Build 0)  -->

<svg
   xmlns:dc="http://purl.org/dc/elements/1.1/"
   xmlns:cc="http://creativecommons.org/ns#"
   xmlns:rdf="http://www.w3.org/1999/02/22-rdf-syntax-ns#"
   xmlns:svg="http://www.w3.org/2000/svg"
   xmlns="http://www.w3.org/2000/svg"
   xmlns:sodipodi="http://sodipodi.sourceforge.net/DTD/sodipodi-0.dtd"
   xmlns:inkscape="http://www.inkscape.org/namespaces/inkscape"
   version="1.1"
   x="0px"
   y="0px"
   width="86px"
   height="86px"
   viewBox="0 0 86 86"
   enable-background="new 0 0 86 86"
   xml:space="preserve"
   id="svg2"
   inkscape:version="0.91 r13725"
   sodipodi:docname="icon.svg"
   inkscape:export-filename="/home/pablo/Proyectos/SailfishOS/harbour-pepefish/icons/86.png"
   inkscape:export-xdpi="90"
   inkscape:export-ydpi="90"><metadata
     id="metadata23"><rdf:RDF><cc:Work
         rdf:about=""><dc:format>image/svg+xml</dc:format><dc:type
           rdf:resource="http://purl.org/dc/dcmitype/StillImage" /></cc:Work></rdf:RDF></metadata><defs
     id="defs21"><linearGradient
       y2="12.8066"
       x2="73.1939"
       y1="85.2833"
       x1="0.7171"
       gradientUnits="userSpaceOnUse"
       id="SVGID_1_"
       gradientTransform="translate(131.25,-7.75)"><stop
         id="stop7"
         style="stop-color:#AD0029"
         offset="0" /><stop
         id="stop9"
         style="stop-color:#D01E48"
         offset="0.6976" /><stop
         id="stop11"
         style="stop-color:#E02D57"
         offset="1" /></linearGradient><linearGradient
       gradientTransform="translate(47.9591,-26.572116)"
       y2="12.8066"
       x2="73.193901"
       y1="85.283302"
       x1="0.71710002"
       gradientUnits="userSpaceOnUse"
       id="SVGID_1_-6"><stop
         id="stop7-7"
         style="stop-color:#AD0029"
         offset="0" /><stop
         id="stop9-5"
         style="stop-color:#D01E48"
         offset="0.6976" /><stop
         id="stop11-3"
         style="stop-color:#E02D57"
         offset="1" /></linearGradient><linearGradient
       y2="12.8066"
       x2="73.193901"
       y1="85.283302"
       x1="0.71710002"
       gradientUnits="userSpaceOnUse"
       id="linearGradient4164"><stop
         id="stop4166"
         style="stop-color:#AD0029"
         offset="0" /><stop
         id="stop4168"
         style="stop-color:#D01E48"
         offset="0.6976" /><stop
         id="stop4170"
         style="stop-color:#E02D57"
         offset="1" /></linearGradient><clipPath
       clipPathUnits="userSpaceOnUse"
       id="clipPath4306"><g
         id="g4308"><circle
           r="7.5"
           cy="4.5474133"
           cx="18.06465"
           id="circle4310"
           style="color:#000000;display:inline;overflow:visible;visibility:visible;fill:#ff0916;fill-opacity:1;fill-rule:nonzero;stroke:none;stroke-width:10.09899998;stroke-linecap:butt;stroke-linejoin:miter;stroke-miterlimit:4;stroke-dasharray:none;stroke-dashoffset:0;stroke-opacity:1;marker:none;enable-background:accumulate" /><circle
           r="7.5"
           cy="-2.6400282"
           cx="47.154438"
           id="circle4312"
           style="color:#000000;display:inline;overflow:visible;visibility:visible;fill:#ff0916;fill-opacity:1;fill-rule:nonzero;stroke:none;stroke-width:10.09899998;stroke-linecap:butt;stroke-linejoin:miter;stroke-miterlimit:4;stroke-dasharray:none;stroke-dashoffset:0;stroke-opacity:1;marker:none;enable-background:accumulate" /><circle
           r="7.5"
           cy="23.642771"
           cx="24.994431"
           id="circle4314"
           style="color:#000000;display:inline;overflow:visible;visibility:visible;fill:#ff0916;fill-opacity:1;fill-rule:nonzero;stroke:none;stroke-width:10.09899998;stroke-linecap:butt;stroke-linejoin:miter;stroke-miterlimit:4;stroke-dasharray:none;stroke-dashoffset:0;stroke-opacity:1;marker:none;enable-background:accumulate" /><circle
           r="7.5"
           cy="29.826956"
           cx="7.4718747e-07"
           id="circle4316"
           style="color:#000000;display:inline;overflow:visible;visibility:visible;fill:#ff0916;fill-opacity:1;fill-rule:nonzero;stroke:none;stroke-width:10.09899998;stroke-linecap:butt;stroke-linejoin:miter;stroke-miterlimit:4;stroke-dasharray:none;stroke-dashoffset:0;stroke-opacity:1;marker:none;enable-background:accumulate" /><circle
           r="7.5"
           cy="58.171146"
           cx="-2.0613978"
           id="circle4318"
           style="color:#000000;display:inline;overflow:visible;visibility:visible;fill:#ff0916;fill-opacity:1;fill-rule:nonzero;stroke:none;stroke-width:10.09899998;stroke-linecap:butt;stroke-linejoin:miter;stroke-miterlimit:4;stroke-dasharray:none;stroke-dashoffset:0;stroke-opacity:1;marker:none;enable-background:accumulate" /><circle
           r="7.5"
           cy="86"
           cx="0.51534927"
           id="circle4320"
           style="color:#000000;display:inline;overflow:visible;visibility:visible;fill:#ff0916;fill-opacity:1;fill-rule:nonzero;stroke:none;stroke-width:10.09899998;stroke-linecap:butt;stroke-linejoin:miter;stroke-miterlimit:4;stroke-dasharray:none;stroke-dashoffset:0;stroke-opacity:1;marker:none;enable-background:accumulate" /><circle
           r="7.5"
           cy="89.34977"
           cx="35.559082"
           id="circle4322"
           style="color:#000000;display:inline;overflow:visible;visibility:visible;fill:#ff0916;fill-opacity:1;fill-rule:nonzero;stroke:none;stroke-width:10.09899998;stroke-linecap:butt;stroke-linejoin:miter;stroke-miterlimit:4;stroke-dasharray:none;stroke-dashoffset:0;stroke-opacity:1;marker:none;enable-background:accumulate" /><circle
           r="7.5"
           cy="80.331161"
           cx="68.54142"
           id="circle4324"
           style="color:#000000;display:inline;overflow:visible;visibility:visible;fill:#ff0916;fill-opacity:1;fill-rule:nonzero;stroke:none;stroke-width:10.09899998;stroke-linecap:butt;stroke-linejoin:miter;stroke-miterlimit:4;stroke-dasharray:none;stroke-dashoffset:0;stroke-opacity:1;marker:none;enable-background:accumulate" /><circle
           r="7.5"
           cy="56.625107"
           cx="85.805611"
           id="circle4326"
           style="color:#000000;display:inline;overflow:visible;visibility:visible;fill:#ff0916;fill-opacity:1;fill-rule:nonzero;stroke:none;stroke-width:10.09899998;stroke-linecap:butt;stroke-linejoin:miter;stroke-miterlimit:4;stroke-dasharray:none;stroke-dashoffset:0;stroke-opacity:1;marker:none;enable-background:accumulate" /><circle
           r="7.5"
           cy="64.355331"
           cx="51.534901"
           id="circle4328"
           style="color:#000000;display:inline;overflow:visible;visibility:visible;fill:#ff0916;fill-opacity:1;fill-rule:nonzero;stroke:none;stroke-width:10.09899998;stroke-linecap:butt;stroke-linejoin:miter;stroke-miterlimit:4;stroke-dasharray:none;stroke-dashoffset:0;stroke-opacity:1;marker:none;enable-background:accumulate" /><circle
           r="7.5"
           cy="9.7283468"
           cx="74.467934"
           id="circle4330"
           style="color:#000000;display:inline;overflow:visible;visibility:visible;fill:#ff0916;fill-opacity:1;fill-rule:nonzero;stroke:none;stroke-width:10.09899998;stroke-linecap:butt;stroke-linejoin:miter;stroke-miterlimit:4;stroke-dasharray:none;stroke-dashoffset:0;stroke-opacity:1;marker:none;enable-background:accumulate" /><circle
           r="7.5"
           cy="30.85766"
           cx="88.124672"
           id="circle4332"
           style="color:#000000;display:inline;overflow:visible;visibility:visible;fill:#ff0916;fill-opacity:1;fill-rule:nonzero;stroke:none;stroke-width:10.09899998;stroke-linecap:butt;stroke-linejoin:miter;stroke-miterlimit:4;stroke-dasharray:none;stroke-dashoffset:0;stroke-opacity:1;marker:none;enable-background:accumulate" /><circle
           r="7.5"
           cy="46.318123"
           cx="29.632568"
           id="circle4334"
           style="color:#000000;display:inline;overflow:visible;visibility:visible;fill:#ff0916;fill-opacity:1;fill-rule:nonzero;stroke:none;stroke-width:10.09899998;stroke-linecap:butt;stroke-linejoin:miter;stroke-miterlimit:4;stroke-dasharray:none;stroke-dashoffset:0;stroke-opacity:1;marker:none;enable-background:accumulate" /><circle
           r="7.5"
           cy="69.76651"
           cx="22.675358"
           id="circle4336"
           style="color:#000000;display:inline;overflow:visible;visibility:visible;fill:#ff0916;fill-opacity:1;fill-rule:nonzero;stroke:none;stroke-width:10.09899998;stroke-linecap:butt;stroke-linejoin:miter;stroke-miterlimit:4;stroke-dasharray:none;stroke-dashoffset:0;stroke-opacity:1;marker:none;enable-background:accumulate" /><circle
           r="7.5"
           cy="18.746956"
           cx="53.596294"
           id="circle4338"
           style="color:#000000;display:inline;overflow:visible;visibility:visible;fill:#ff0916;fill-opacity:1;fill-rule:nonzero;stroke:none;stroke-width:10.09899998;stroke-linecap:butt;stroke-linejoin:miter;stroke-miterlimit:4;stroke-dasharray:none;stroke-dashoffset:0;stroke-opacity:1;marker:none;enable-background:accumulate" /><circle
           r="7.5"
           cy="44.5144"
           cx="64.418625"
           id="circle4340"
           style="color:#000000;display:inline;overflow:visible;visibility:visible;fill:#ff0916;fill-opacity:1;fill-rule:nonzero;stroke:none;stroke-width:10.09899998;stroke-linecap:butt;stroke-linejoin:miter;stroke-miterlimit:4;stroke-dasharray:none;stroke-dashoffset:0;stroke-opacity:1;marker:none;enable-background:accumulate" /></g></clipPath></defs><sodipodi:namedview
     pagecolor="#ffffff"
     bordercolor="#666666"
     borderopacity="1"
     objecttolerance="10"
     gridtolerance="10"
     guidetolerance="10"
     inkscape:pageopacity="0"
     inkscape:pageshadow="2"
     inkscape:window-width="1280"
     inkscape:window-height="752"
     id="namedview19"
     showgrid="false"
     showguides="false"
     inkscape:zoom="2.8284271"
     inkscape:cx="-5.6642829"
     inkscape:cy="21.929092"
     inkscape:window-x="0"
     inkscape:window-y="0"
     inkscape:window-maximized="1"
     inkscape:current-layer="svg2" /><g
     id="Layer_2"
     display="none" /><g
     id="g4342"
     inkscape:export-xdpi="269.79001"
     inkscape:export-ydpi="269.79001"><path
       d="M 43,0.3 C 19.418,0.3 0.3,19.418 0.3,43 l 0,41.277 c 0,0.786 0.637,1.423 1.423,1.423 L 43,85.7 C 66.585,85.7 85.7,66.582 85.7,43 85.7,19.418 66.585,0.3 43,0.3 Z"
       id="path13-3"
       style="fill:#ffffff"
       inkscape:connector-curvature="0" /><path
       clip-path="url(#clipPath4306)"
       d="M 43,0.3 C 19.418,0.3 0.3,19.418 0.3,43 l 0,41.277 c 0,0.786 0.637,1.423 1.423,1.423 L 43,85.7 C 66.585,85.7 85.7,66.582 85.7,43 85.7,19.418 66.585,0.3 43,0.3 Z"
       id="path13"
       style="fill:#ff0000"
       inkscape:connector-curvature="0"
       inkscape:export-xdpi="269.79001"
       inkscape:export-ydpi="269.79001" /></g><g
     id="g4453"><path
       sodipodi:nodetypes="cccccsscc"
       inkscape:connector-curvature="0"
       id="path4400"
       d="M 25.027558,84.977114 63.762606,53.184353 C 55.803252,56.159937 52.262001,59.278842 46.508953,58.393391 60.398702,51.946307 84.167415,31.635864 84.167415,31.635864 l -0.295347,-1.045356 c 0,0 -26.209907,17.023788 -39.7299,21.347662 -5.737156,1.834819 -15.475747,0.872579 -21.251361,2.582506 C 11.32492,57.944872 0.35664801,66.77244 0.35664801,66.77244 -10.857193,89.848457 2.4040477,91.508778 25.027558,84.977114 Z"
       style="color:#000000;display:inline;overflow:visible;visibility:visible;opacity:1;fill:#1c2c7a;fill-opacity:1;fill-rule:nonzero;stroke:none;stroke-width:0.5;stroke-linecap:round;stroke-linejoin:round;stroke-miterlimit:4;stroke-dasharray:none;stroke-dashoffset:0;stroke-opacity:1;marker:none;enable-background:accumulate" /><g
       transform="matrix(0.24726586,0,0,0.24726586,36.649576,37.204288)"
       id="g4429"><ellipse
         style="color:#000000;display:inline;overflow:visible;visibility:visible;fill:#9cabc6;fill-opacity:1;fill-rule:nonzero;stroke:none;stroke-width:0.5;stroke-linecap:butt;stroke-linejoin:miter;stroke-miterlimit:4;stroke-dasharray:none;stroke-dashoffset:0;stroke-opacity:1;marker:none;enable-background:accumulate"
         id="path4402"
         cx="-57.364037"
         cy="105.18027"
         rx="11.048544"
         ry="11.22532" /><g
         id="g4425"><ellipse
           ry="8.3968925"
           rx="8.2646589"
           cy="107.2132"
           cx="-56.436306"
           id="path4402-6"
           style="color:#000000;display:inline;overflow:visible;visibility:visible;fill:#6486c3;fill-opacity:1;fill-rule:nonzero;stroke:none;stroke-width:0.5;stroke-linecap:butt;stroke-linejoin:miter;stroke-miterlimit:4;stroke-dasharray:none;stroke-dashoffset:0;stroke-opacity:1;marker:none;enable-background:accumulate" /><ellipse
           ry="5.8597937"
           rx="5.7675142"
           cy="107.2132"
           cx="-56.436306"
           id="path4402-2"
           style="color:#000000;display:inline;overflow:visible;visibility:visible;fill:#0e2145;fill-opacity:1;fill-rule:nonzero;stroke:none;stroke-width:0.5;stroke-linecap:butt;stroke-linejoin:miter;stroke-miterlimit:4;stroke-dasharray:none;stroke-dashoffset:0;stroke-opacity:1;marker:none;enable-background:accumulate" /></g></g><path
       sodipodi:nodetypes="cscscscscscsc"
       inkscape:connector-curvature="0"
       id="path4435"
       d="m 18.788349,56.161071 c 0,0 13.399456,-9.450596 9.477107,-13.177277 -3.309806,-3.144699 -10.69601,8.555153 -10.69601,8.555153 0,0 3.539273,-7.592635 0.842343,-8.428416 -3.294277,-1.020899 -4.97328,9.072867 -4.97328,9.072867 0,0 1.475224,-8.650622 -1.420445,-8.57323 -3.2271518,0.08624 -1.070425,9.625579 -1.070425,9.625579 0,0 -2.7735095,-7.144061 -5.0734752,-5.929081 -2.2119791,1.168502 1.9598866,7.244521 1.9598866,7.244521 0,0 -3.7642196,-3.260624 -5.1000119,-0.780796 -1.2912365,2.397111 2.9072339,4.27575 2.9072339,4.27575 0,0 -3.7394414,-1.08633 -3.9007354,1.18933 -0.287214,4.052163 9.035753,1.41136 9.035753,1.41136"
       style="color:#000000;display:inline;overflow:visible;visibility:visible;opacity:1;fill:#000000;fill-opacity:1;fill-rule:nonzero;stroke:none;stroke-width:0.5;stroke-linecap:round;stroke-linejoin:round;stroke-miterlimit:4;stroke-dasharray:none;stroke-dashoffset:0;stroke-opacity:1;marker:none;enable-background:accumulate" /></g><path
     style="color:#000000;display:inline;overflow:visible;visibility:visible;opacity:1;fill:#000000;fill-opacity:1;fill-rule:nonzero;stroke:none;stroke-width:0.5;stroke-linecap:round;stroke-linejoin:round;stroke-miterlimit:4;stroke-dasharray:none;stroke-dashoffset:0;stroke-opacity:1;marker:none;enable-background:accumulate"
     d="m 10.875,60.125 c 1.679073,6.466465 3.057231,13.995328 5.25,17.0625 0.929258,1.299815 7.407416,-4.087514 5.625,-5.5 C 18.127231,68.816616 15.199768,61.250159 15.25,58"
     id="path5247"
     inkscape:connector-curvature="0"
     sodipodi:nodetypes="cssc" /></svg>